{
   "rules": [
      { "includeClasses": "**" },
      { "excludeClasses": "org.apache.maven.**" },
      { "excludeClasses": "org.junit.**" },
      { "excludeClasses": "org.mockito.**" },
      { "excludeClasses": "org.assertj.**" },
      { "excludeClasses": "org.testcontainers.**" },
      { "excludeClasses": "java.**" },
      { "excludeClasses": "jdk.internal.**" },
      { "excludeClasses": "sun.**" },
      { "excludeClasses": "com.sun.**" }
   ]
}